<?xml version="1.0" encoding="utf-8"?>
<!-- Generator: Adobe Illustrator 24.2.1, SVG Export Plug-In . SVG Version: 6.00 Build 0)  -->
<svg version="1.1" id="Capa_1" xmlns="http://www.w3.org/2000/svg" xmlns:xlink="http://www.w3.org/1999/xlink" x="0px" y="0px"
	 viewBox="0 0 32 32" style="enable-background:new 0 0 32 32;" xml:space="preserve">
<style type="text/css">
	.st0{fill:#572EE5;}
</style>
<path id="icon-fav-active-3" class="st0" d="M15.3,24l-7-7c-1.9-2-1.8-5.3,0.2-7.2c2-1.8,5-1.8,7,0l0.3,0.3l0.3-0.3
	c1.9-2.1,5.2-2.2,7.2-0.2s2.2,5.2,0.2,7.2c-0.1,0.1-0.2,0.2-0.2,0.2l-6.9,7C16.1,24.3,15.6,24.3,15.3,24z"/>
</svg>
