<?xml version="1.0" encoding="utf-8"?>
<!-- Generator: Adobe Illustrator 24.2.1, SVG Export Plug-In . SVG Version: 6.00 Build 0)  -->
<svg version="1.1" id="Capa_1" xmlns="http://www.w3.org/2000/svg" xmlns:xlink="http://www.w3.org/1999/xlink" x="0px" y="0px"
	 viewBox="0 0 32 32" style="enable-background:new 0 0 32 32;" xml:space="preserve">
<style type="text/css">
	.st0{fill:#572EE5;}
</style>
<path id="path-1_1_" class="st0" d="M16.3,9.5c1-1,2.3-1.5,3.6-1.5c1.4,0,2.7,0.5,3.6,1.5c1,1,1.5,2.3,1.5,3.6s-0.5,2.7-1.5,3.6
	l-6.9,6.9c-0.3,0.3-0.8,0.3-1.1,0l-6.9-6.9c-2-2-2-5.2,0-7.2s5.2-2,7.2,0L16,9.8L16.3,9.5z M16,22l5.6-5.6l0.8-0.8
	c0.7-0.7,1-1.6,1-2.5s-0.4-1.8-1-2.5c-0.7-0.7-1.6-1-2.5-1s-1.8,0.4-2.5,1l-0.8,0.8c-0.3,0.3-0.8,0.3-1.1,0l-0.8-0.8
	c-1.4-1.4-3.6-1.4-5,0s-1.4,3.6,0,5L16,22z"/>
</svg>
